graph LR
    subgraph AddQueue
    SERVICE(SERVICE<hr><i>byte</i>)
    URI_LEN(URI_LEN<hr><i>i64</i>)
    URI_PAYLOAD(URI_PAYLOAD<hr><i>char*</i>)
    TITLE_LEN(TITLE_LEN<hr><i>i64</i>)
    TITLE_PAYLOAD(TITLE_PAYLOAD<hr><i>char*</i>)
    ARTIST_LEN(ARTIST_LEN<hr><i>i64</i>)
    ARTIST_PAYLOAD(ARTIST_PAYLOAD<hr><i>char*</i>)
    SERVICE---URI_LEN
    URI_LEN---URI_PAYLOAD
    URI_PAYLOAD---TITLE_LEN
    TITLE_LEN---TITLE_PAYLOAD
    TITLE_PAYLOAD---ARTIST_LEN
    ARTIST_LEN---ARTIST_PAYLOAD
    end